{
  "settings": {
    "minWordSizefor1Typo": 4,
    "minWordSizefor2Typos": 8,
    "hitsPerPage": 18,
    "maxValuesPerFacet": 100,
    "attributesToIndex": [
      "title",
      "longDescription",
      "categories",
      "vendors.name"
    ],
    "numericAttributesToIndex": null,
    "attributesToRetrieve": null,
    "unretrievableAttributes": null,
    "optionalWords": null,
    "attributesForFaceting": [
      "categories",
      "fromAge",
      "toAge",
      "ean",
      "facetPrice"
    ],
    "attributesToSnippet": null,
    "attributesToHighlight": null,
    "paginationLimitedTo": 1000,
    "attributeForDistinct": null,
    "exactOnSingleWordQuery": "attribute",
    "ranking": [
      "typo",
      "geo",
      "words",
      "filters",
      "proximity",
      "attribute",
      "exact",
      "custom"
    ],
    "customRanking": [
      "asc(ranking)"
    ],
    "separatorsToIndex": "",
    "removeWordsIfNoResults": "none",
    "queryType": "prefixLast",
    "highlightPreTag": "<em>",
    "highlightPostTag": "</em>",
    "snippetEllipsisText": "",
    "alternativesAsExact": [
      "ignorePlurals",
      "singleWordSynonym"
    ]
  },
  "rules": [],
  "synonyms": [
    {
      "type": "synonym",
      "synonyms": [
        "fidget",
        "vidjet"
      ],
      "objectID": "1501008844616"
    }
  ]
}