{
  "Comment": "A step functions template for updating the listi feeds",
  "StartAt": "Parallel",
  "States": {
    "Parallel": {
      "Type": "Parallel",
      "Next": "Aggregator",
      "Branches": [
        {
          "StartAt": "Tradetracker",
          "States": {
            "Tradetracker": {
              "Type": "Task",
              "Resource": "${FeedFetcherFunctionArn}",
              "ResultPath": "$.guid",
              "Parameters": {
                "Executor": "TRADETRACKER"
              },
              "Retry": [
                {
                  "ErrorEquals": [
                    "States.ALL"
                  ],
                  "IntervalSeconds": 1,
                  "MaxAttempts": 2,
                  "BackoffRate": 2
                }
              ],
              "End": true
            }
          }
        },
        {
          "StartAt": "Bolfeeds",
          "States": {
            "Bolfeeds": {
              "Type": "Task",
              "Resource": "arn:aws:lambda:eu-west-2:659045676011:function:BOLFEEDS",
              "ResultPath": "$.guid",
              "Retry": [
                {
                  "ErrorEquals": [
                    "States.ALL"
                  ],
                  "IntervalSeconds": 1,
                  "MaxAttempts": 3,
                  "BackoffRate": 2
                }
              ],
              "End": true
            }
          }
        },
        {
          "StartAt": "PerformanceHorizon",
          "States": {
            "PerformanceHorizon": {
              "Type": "Task",
              "Resource": "arn:aws:lambda:eu-west-2:659045676011:function:PerformanceHorizon",
              "ResultPath": "$.guid",
              "Retry": [
                {
                  "ErrorEquals": [
                    "States.ALL"
                  ],
                  "IntervalSeconds": 1,
                  "MaxAttempts": 3,
                  "BackoffRate": 2
                }
              ],
              "End": true
            }
          }
        },
        {
          "StartAt": "BolApi",
          "States": {
            "BolApi": {
              "Type": "Task",
              "Resource": "arn:aws:lambda:eu-west-2:659045676011:function:Bolopenapi",
              "ResultPath": "$.guid",
              "Retry": [
                {
                  "ErrorEquals": [
                    "States.ALL"
                  ],
                  "IntervalSeconds": 1,
                  "MaxAttempts": 3,
                  "BackoffRate": 2
                }
              ],
              "End": true
            }
          }
        }
      ]
    },
    "Aggregator": {
      "Type": "Task",
      "Resource": "arn:aws:lambda:eu-west-2:659045676011:function:Aggregator",
      "Retry": [
        {
          "ErrorEquals": [
            "States.ALL"
          ],
          "IntervalSeconds": 1,
          "MaxAttempts": 3,
          "BackoffRate": 2
        }
      ],
      "Next": "Algolia"
    },
    "Algolia": {
      "Type": "Task",
      "Resource": "arn:aws:lambda:eu-west-2:659045676011:function:Algolia",
      "End": true
    }
  }
}
